q10.vcd
$date
	Wed Nov  8 15:21:40 2023
$end
$version
	galaxsim  v23.11.00.d001 x86_64_R Nov.07 2023 dp12_12
$end

$timescale
	1s
$end

$scope module TESTBENCH $end
$var reg 1 ! clk $end
$var reg 4 " x [3:0] $end
$var reg 4 # y [3:0] $end
$var reg 4 $ z [3:0] $end
$var reg 1 % a $end

$scope module f1 $end
$var wire 1 & clk $end
$var reg 4 ' x [3:0] $end
$var reg 4 ( y [3:0] $end
$var reg 4 ) z [4:1] $end
$var reg 1 * a $end
$var reg 13 + current [12:0] $end
$var reg 13 , next [12:0] $end
$upscope $end

$upscope $end

$enddefinitions $end

#0
$dumpvars
0!
b0000000000001 ,
b0000000000001 +
0*
b0000 )
b0000 (
b0000 '
0&
0%
b0000 $
b0000 #
b0000 "
$end
#1000
1!
b0011 "
1&
b0011 '
b0000000000101 +
b0000000000101 ,
#2000
b0111 (
b0000000001001 ,
b0000000001001 +
0&
0!
b0111 #
#3000
b0000000001101 ,
1!
1&
b0000000001101 +
#4000
b0101 "
b0000000010011 +
0&
0!
b0000000010011 ,
b0101 '
#5000
b0110 (
b0000000011001 ,
1!
1&
b0000000011001 +
b0110 #
#6000
b0000000011111 ,
b0000000011111 +
0&
0!
#7000
b0111 "
1!
1&
b0000000100111 +
b0000000100111 ,
b0111 '
#8000
b0010 (
b0000000101111 ,
b0000000101111 +
0&
0!
b0010 #
#9000
b0011 )
1!
1&
b0000000110111 +
b0000000110111 ,
b0011 $
#10000
b0000 "
b0000000111000 ,
b0000000111000 +
0&
0!
b0000 '
#11000
b0001 (
1!
1&
b0000000111001 +
b0000000111001 ,
b0001 #
#12000
b0001 )
b0000000111010 ,
b0000000111010 +
0&
0!
b0001 $
#13000
b0110 "
1!
1&
b0000001000001 +
b0000001000001 ,
b0110 '
#14000
0!
b0000001001000 ,
b0000001001000 +
0&
#15000
b0110 )
1&
b0000001001111 +
b0000001001111 ,
1!
b0110 $
#16000
b0100 "
0!
b0000001010100 ,
b0000001010100 +
0&
b0100 '
#17000
b0100 (
1&
b0000001011001 +
b0000001011001 ,
1!
b0100 #
#18000
b0000 )
0!
b0000001011110 ,
b0000001011110 +
0&
b0000 $
#19000
b0001 "
1&
b0000001100000 +
b0000001100000 ,
1!
b0001 '
#20000
0&
0!
b0000001100010 ,
b0000001100010 +
#21000
b0110 )
b0000001100100 +
b0000001100100 ,
1!
1&
b0110 $
#22000
b0101 "
0&
0!
b0000001101010 ,
b0000001101010 +
b0101 '
#23000
b0001 (
b0000001110000 +
b0000001110000 ,
1!
1&
b0001 #
#24000
b0011 )
0&
0!
b0000001110110 ,
b0000001110110 +
b0011 $
#25000
b0000 "
b0000001110111 +
b0000001110111 ,
1!
1&
b0000 '
#26000
b0100 (
0&
0!
b0000001111000 ,
b0000001111000 +
b0100 #
#27000
b0010 )
b0000001111001 +
b0000001111001 ,
1!
1&
b0010 $
#28000
b0111 "
0&
0!
b0000010000001 ,
b0000010000001 +
b0111 '
#29000
b0111 (
b0000010001001 +
b0000010001001 ,
1!
1&
b0111 #
#30000
b0000010010001 +
0&
0!
b0000010010001 ,
#31000
b0011 "
b0000010010101 ,
1!
1&
b0000010010101 +
b0011 '
#32000
b0000 (
b0000010011001 +
0&
0!
b0000010011001 ,
b0000 #
#33000
b0110 )
b0000010011101 ,
1!
1&
b0000010011101 +
b0110 $
#34000
b0001 "
b0000010011111 +
0&
0!
b0000010011111 ,
b0001 '
#35000
b0001 (
b0000010100001 ,
1!
1&
b0000010100001 +
b0001 #
#36000
b0011 )
b0000010100011 +
0&
0!
b0000010100011 ,
b0011 $
#37000
b0000 "
b0000010100100 ,
1!
1&
b0000010100100 +
b0000 '
#38000
b0100 (
b0000010100101 +
0&
0!
b0000010100101 ,
b0100 #
#39000
b0010 )
b0000010100110 ,
1!
1&
b0000010100110 +
b0010 $
#40000
b0101 "
b0000010101100 +
0&
0!
b0000010101100 ,
b0101 '
#41000
b0111 (
b0000010110010 ,
1!
1&
b0000010110010 +
b0111 #
#42000
b0001 )
b0000010111000 +
0&
0!
b0000010111000 ,
b0001 $
#43000
b0000 "
b0000010111001 ,
1!
1&
b0000010111001 +
b0000 '
#44000
b0011 (
b0000010111010 +
0&
0!
b0000010111010 ,
b0011 #
#45000
b0111 )
b0000010111011 ,
1!
1&
b0000010111011 +
b0111 $
#46000
b0110 "
b0000011000010 +
0&
0!
b0000011000010 ,
b0110 '
#47000
b0000011001001 +
b0000011001001 ,
1!
1&
#48000
b0000011010000 +
0&
0!
b0000011010000 ,
#49000
b0100 "
b0000011010101 ,
1!
1&
b0000011010101 +
b0100 '
#50000
b0000011011010 ,
b0000011011010 +
0&
0!
#51000
b0110 )
1!
1&
b0000011011111 +
b0000011011111 ,
b0110 $
#52000
b0111 "
b0000011100111 ,
b0000011100111 +
0&
0!
b0111 '
#53000
b0000011101111 ,
1!
1&
b0000011101111 +
#54000
b0000011110111 ,
b0000011110111 +
0&
0!
#55000
b0110 "
1!
1&
b0000011111110 +
b0000011111110 ,
b0110 '
#56000
b0110 (
b0000100000101 ,
b0000100000101 +
0&
0!
b0110 #
#57000
b0101 )
1!
1&
b0000100001100 +
b0000100001100 ,
b0101 $
#58000
0!
b0000100010011 ,
b0000100010011 +
0&
#59000
b0001 (
1&
b0000100011010 +
b0000100011010 ,
1!
b0001 #
#60000
b0111 )
0!
b0000100100001 ,
b0000100100001 +
0&
b0111 $
#61000
b0011 "
1&
b0000100100101 +
b0000100100101 ,
1!
b0011 '
#62000
b0110 (
0!
b0000100101001 ,
b0000100101001 +
0&
b0110 #
#63000
b0110 )
1&
b0000100101101 +
b0000100101101 ,
1!
b0110 $
#64000
b0111 "
0!
b0000100110101 ,
b0000100110101 +
0&
b0111 '
#65000
b0011 (
1&
b0000100111101 +
b0000100111101 ,
1!
b0011 #
#66000
b0010 )
0!
b0000101000101 ,
b0000101000101 +
0&
b0010 $
#67000
1!
1&
b0000101001101 +
b0000101001101 ,
#68000
b0000 (
b0000101010101 ,
b0000101010101 +
0&
0!
b0000 #
#69000
b0001 )
1!
1&
b0000101011101 +
b0000101011101 ,
b0001 $
#70000
b0100 "
b0000101100010 ,
b0000101100010 +
0&
0!
b0100 '
#71000
b0000101100111 ,
1!
1&
b0000101100111 +
#72000
b0110 )
b0000101101100 +
0&
0!
b0000101101100 ,
b0110 $
#73000
b0101 "
b0000101110010 ,
1!
1&
b0000101110010 +
b0101 '
#74000
b0001 (
b0000101111000 +
0&
0!
b0000101111000 ,
b0001 #
#75000
b0000 )
b0000101111110 ,
1!
1&
b0000101111110 +
b0000 $
#76000
b0000 "
b0000101111111 +
0&
0!
b0000101111111 ,
b0000 '
#77000
b0000110000000 +
b0000110000000 ,
1!
1&
#78000
b0010 )
0&
0!
b0000110000001 ,
b0000110000001 +
b0010 $
#79000
b0110 "
b0000110001000 +
b0000110001000 ,
1!
1&
b0110 '
#80000
b0000110001111 +
0&
0!
b0000110001111 ,
#81000
b0000110010110 +
b0000110010110 ,
1!
1&
#82000
b0111 "
0&
0!
b0000110011110 ,
b0000110011110 +
b0111 '
#83000
b0010 (
b0000110100110 +
b0000110100110 ,
1!
1&
b0010 #
#84000
b0000 )
0&
0!
b0000110101110 ,
b0000110101110 +
b0000 $
#85000
b0000 "
b0000110101111 +
b0000110101111 ,
1!
1&
b0000 '
#86000
b0110 (
0&
0!
b0000110110000 ,
b0000110110000 +
b0110 #
#87000
1&
b0000110110001 +
b0000110110001 ,
1!
#88000
b0111 "
0!
b0000110111001 ,
b0000110111001 +
0&
b0111 '
#89000
b0100 (
1&
b0000111000001 +
b0000111000001 ,
1!
b0100 #
#90000
b0111 )
0!
b0000111001001 ,
b0000111001001 +
0&
b0111 $
#91000
b0010 "
1&
b0000111001100 +
b0000111001100 ,
1!
b0010 '
#92000
b0011 (
0!
b0000111001111 ,
b0000111001111 +
0&
b0011 #
#93000
b0110 )
1&
b0000111010010 +
b0000111010010 ,
1!
b0110 $
#94000
b0011 "
0!
b0000111010110 ,
b0000111010110 +
0&
b0011 '
#95000
b0100 (
1&
b0000111011010 +
b0000111011010 ,
1!
b0100 #
#96000
b0001 )
0!
b0000111011110 ,
b0000111011110 +
0&
b0001 $
#97000
b0000 "
1&
b0000111011111 +
b0000111011111 ,
1!
b0000 '
#98000
b0101 (
0!
b0000111100000 ,
b0000111100000 +
0&
b0101 #
#99000
1!
1&
b0000111100001 +
b0000111100001 ,
#100000
b0011 "
b0000111100101 ,
b0000111100101 +
0&
0!
b0011 '
#101000
b0010 (
1!
1&
b0000111101001 +
b0000111101001 ,
b0010 #
#102000
b0100 )
b0000111101101 ,
b0000111101101 +
0&
0!
b0100 $
#103000
b0010 "
1!
1&
b0000111110000 +
b0000111110000 ,
b0010 '
#104000
0!
b0000111110011 ,
b0000111110011 +
0&
#105000
b0000 )
1&
b0000111110110 +
b0000111110110 ,
1!
b0000 $
#106000
b0110 "
0!
b0000111111101 ,
b0000111111101 +
0&
b0110 '
#107000
b0110 (
1&
b0001000000100 +
b0001000000100 ,
1!
b0110 #
#108000
b0001 )
0!
b0001000001011 ,
b0001000001011 +
0&
b0001 $
#109000
b0100 "
1&
b0001000010000 +
b0001000010000 ,
1!
b0100 '
#110000
b0010 (
0!
b0001000010101 ,
b0001000010101 +
0&
b0010 #
#111000
b0011 )
1&
b0001000011010 +
b0001000011010 ,
1!
b0011 $
#112000
b0110 "
0!
b0001000100001 ,
b0001000100001 +
0&
b0110 '
#113000
1!
1&
b0001000101000 +
b0001000101000 ,
#114000
b0001 )
b0001000101111 ,
b0001000101111 +
0&
0!
b0001 $
#115000
b0100 "
1!
1&
b0001000110100 +
b0001000110100 ,
b0100 '
#116000
b0000 (
b0001000111001 ,
b0001000111001 +
0&
0!
b0000 #
#117000
b0011 )
1!
1&
b0001000111110 +
b0001000111110 ,
b0011 $
#118000
b0101 "
b0001001000100 ,
b0001001000100 +
0&
0!
b0101 '
#119000
b0011 (
1!
1&
b0001001001010 +
b0001001001010 ,
b0011 #
#120000
b0001 )
b0001001010000 ,
b0001001010000 +
0&
0!
b0001 $
#121000
b0111 "
1!
1&
b0001001011000 +
b0001001011000 ,
b0111 '
#122000
b0100 (
b0001001100000 ,
b0001001100000 +
0&
0!
b0100 #
#123000
b0101 )
1!
1&
b0001001101000 +
b0001001101000 ,
b0101 $
#124000
b0011 "
b0001001101100 ,
b0001001101100 +
0&
0!
b0011 '
#125000
b0001 (
1!
1&
b0001001110000 +
b0001001110000 ,
b0001 #
#126000
b0111 )
b0001001110100 ,
b0001001110100 +
0&
0!
b0111 $
#127000
b0000 "
1!
1&
b0001001110101 +
b0001001110101 ,
b0000 '
#128000
b0110 (
b0001001110110 ,
b0001001110110 +
0&
0!
b0110 #
#129000
b0011 )
1!
1&
b0001001110111 +
b0001001110111 ,
b0011 $
#130000
b0100 "
b0001001111100 ,
b0001001111100 +
0&
0!
b0100 '
#131000
b0101 (
1!
1&
b0001010000001 +
b0001010000001 ,
b0101 #
#132000
b0100 )
b0001010000110 ,
b0001010000110 +
0&
0!
b0100 $
#133000
b0011 "
1!
1&
b0001010001010 +
b0001010001010 ,
b0011 '
#134000
b0000 (
b0001010001110 ,
b0001010001110 +
0&
0!
b0000 #
#135000
b0111 )
1!
1&
b0001010010010 +
b0001010010010 ,
b0111 $
#136000
b0110 "
b0001010011001 ,
b0001010011001 +
0&
0!
b0110 '
#137000
b0011 (
1!
1&
b0001010100000 +
b0001010100000 ,
b0011 #
#138000
b0000 )
b0001010100111 ,
b0001010100111 +
0&
0!
b0000 $
#139000
b0100 "
1!
1&
b0001010101100 +
b0001010101100 ,
b0100 '
#140000
b0000 (
b0001010110001 ,
b0001010110001 +
0&
0!
b0000 #
#141000
b0101 )
1!
1&
b0001010110110 +
b0001010110110 ,
b0101 $
#142000
b0111 "
b0001010111110 ,
b0001010111110 +
0&
0!
b0111 '
#143000
b0011 (
1!
1&
b0001011000110 +
b0001011000110 ,
b0011 #
#144000
b0110 )
b0001011001110 ,
b0001011001110 +
0&
0!
b0110 $
#145000
b0101 "
1!
1&
b0001011010100 +
b0001011010100 ,
b0101 '
#146000
b0101 (
b0001011011010 ,
b0001011011010 +
0&
0!
b0101 #
#147000
b0001011100000 ,
1!
1&
b0001011100000 +
#148000
b0111 "
b0001011101000 +
0&
0!
b0001011101000 ,
b0111 '
#149000
b0111 (
b0001011110000 ,
1!
1&
b0001011110000 +
b0111 #
#150000
b0011 )
b0001011111000 +
0&
0!
b0001011111000 ,
b0011 $
#151000
b0000 "
b0001011111001 ,
1!
1&
b0001011111001 +
b0000 '
#152000
b0011 (
b0001011111010 +
0&
0!
b0001011111010 ,
b0011 #
#153000
b0101 )
b0001011111011 ,
1!
1&
b0001011111011 +
b0101 $
#154000
b0100 "
b0001100000000 +
0&
0!
b0001100000000 ,
b0100 '
#155000
b0101 (
b0001100000101 ,
1!
1&
b0001100000101 +
b0101 #
#156000
b0001100001010 ,
b0001100001010 +
0&
0!
#157000
b0101 "
1!
1&
b0001100010000 +
b0001100010000 ,
b0101 '
#158000
b0111 (
b0001100010110 ,
b0001100010110 +
0&
0!
b0111 #
#159000
b0001 )
1!
1&
b0001100011100 +
b0001100011100 ,
b0001 $
#160000
b0010 "
b0001100011111 ,
b0001100011111 +
0&
0!
b0010 '
#161000
b0001 (
1!
1&
b0001100100010 +
b0001100100010 ,
b0001 #
#162000
b0100 )
b0001100100101 ,
b0001100100101 +
0&
0!
b0100 $
#163000
b0011 "
1!
1&
b0001100101001 +
b0001100101001 ,
b0011 '
#164000
b0101 (
b0001100101101 ,
b0001100101101 +
0&
0!
b0101 #
#165000
b0001 )
1!
1&
b0001100110001 +
b0001100110001 ,
b0001 $
#166000
b0100 "
b0001100110110 ,
b0001100110110 +
0&
0!
b0100 '
#167000
b0001 (
1!
1&
b0001100111011 +
b0001100111011 ,
b0001 #
#168000
b0100 )
b0001101000000 ,
b0001101000000 +
0&
0!
b0100 $
#169000
b0111 "
1!
1&
b0001101001000 +
b0001101001000 ,
b0111 '
#170000
b0110 (
b0001101010000 ,
b0001101010000 +
0&
0!
b0110 #
#171000
b0011 )
1!
1&
b0001101011000 +
b0001101011000 ,
b0011 $
#172000
b0010 "
b0001101011011 ,
b0001101011011 +
0&
0!
b0010 '
#173000
b0000 (
1!
1&
b0001101011110 +
b0001101011110 ,
b0000 #
#174000
b0100 )
b0001101100001 ,
b0001101100001 +
0&
0!
b0100 $
#175000
b0101 "
1!
1&
b0001101100111 +
b0001101100111 ,
b0101 '
#176000
0!
b0001101101101 ,
b0001101101101 +
0&
#177000
b0001 )
1&
b0001101110011 +
b0001101110011 ,
1!
b0001 $
#178000
b0000 "
0!
b0001101110100 ,
b0001101110100 +
0&
b0000 '
#179000
b0010 (
1&
b0001101110101 +
b0001101110101 ,
1!
b0010 #
#180000
b0011 )
0!
b0001101110110 ,
b0001101110110 +
0&
b0011 $
#181000
b0001 "
1&
b0001101111000 +
b0001101111000 ,
1!
b0001 '
#182000
b0111 (
0!
b0001101111010 ,
b0001101111010 +
0&
b0111 #
#183000
1!
1&
b0001101111100 +
b0001101111100 ,
#184000
b0011 "
b0001110000000 ,
b0001110000000 +
0&
0!
b0011 '
#185000
b0001 (
1!
1&
b0001110000100 +
b0001110000100 ,
b0001 #
#186000
b0001 )
b0001110001000 ,
b0001110001000 +
0&
0!
b0001 $
#187000
b0100 "
1!
1&
b0001110001101 +
b0001110001101 ,
b0100 '
#188000
b0100 (
b0001110010010 ,
b0001110010010 +
0&
0!
b0100 #
#189000
b0100 )
1!
1&
b0001110010111 +
b0001110010111 ,
b0100 $
#190000
b0101 "
b0001110011101 ,
b0001110011101 +
0&
0!
b0101 '
#191000
b0111 (
1!
1&
b0001110100011 +
b0001110100011 ,
b0111 #
#192000
b0000 )
b0001110101001 ,
b0001110101001 +
0&
0!
b0000 $
#193000
b0000 "
1!
1&
b0001110101010 +
b0001110101010 ,
b0000 '
#194000
b0101 (
b0001110101011 ,
b0001110101011 +
0&
0!
b0101 #
#195000
b0001110101100 ,
1!
1&
b0001110101100 +
#196000
b0010 "
b0001110101111 +
0&
0!
b0001110101111 ,
b0010 '
#197000
b0011 (
b0001110110010 ,
1!
1&
b0001110110010 +
b0011 #
#198000
b0001 )
b0001110110101 +
0&
0!
b0001110110101 ,
b0001 $
#199000
b0000 "
b0001110110110 ,
1!
1&
b0001110110110 +
b0000 '
#200000
b0000 (
b0001110110111 +
0&
0!
b0001110110111 ,
b0000 #
#201000
b0001110111000 +
b0001110111000 ,
1!
1&
#202000
b0010 "
0&
0!
b0001110111011 ,
b0001110111011 +
b0010 '
#203000
b0111 (
b0001110111110 +
b0001110111110 ,
1!
1&
b0111 #
#204000
b0000 )
0&
0!
b0001111000001 ,
b0001111000001 +
b0000 $
#205000
b0101 "
b0001111000111 +
b0001111000111 ,
1!
1&
b0101 '
#206000
b0001111001101 +
0&
0!
b0001111001101 ,
#207000
b0001111010011 +
b0001111010011 ,
1!
1&
#208000
b0010 "
0&
0!
b0001111010110 ,
b0001111010110 +
b0010 '
#209000
b0110 (
b0001111011001 +
b0001111011001 ,
1!
1&
b0110 #
#210000
b0001111011100 +
0&
0!
b0001111011100 ,
#211000
b0001 "
b0001111011110 ,
1!
1&
b0001111011110 +
b0001 '
#212000
b0011 (
b0001111100000 +
0&
0!
b0001111100000 ,
b0011 #
#213000
b0101 )
b0001111100010 ,
1!
1&
b0001111100010 +
b0101 $
#214000
b0001111100100 ,
b0001111100100 +
0&
0!
#215000
b0111 (
1!
1&
b0001111100110 +
b0001111100110 ,
b0111 #
#216000
b0110 )
b0001111101000 ,
b0001111101000 +
0&
0!
b0110 $
#217000
b0000 "
1!
1&
b0001111100100 +
b0001111100100 ,
b0000 '
#218000
b0010 (
b0001111100101 ,
b0001111100101 +
0&
0!
b0010 #
#219000
b0100 )
1!
1&
b0001111100110 +
b0001111100110 ,
b0100 $
#220000
b0111 "
b0001111101110 ,
b0001111101110 +
0&
0!
b0111 '
#221000
b0111 (
1!
1&
b0001111101000 +
b0001111101000 ,
b0111 #
#222000
b0010 )
b0001111100010 ,
b0001111100010 +
0&
0!
b0010 $
#223000
b0100 "
1!
1&
b0001111100111 +
b0001111100111 ,
b0100 '
#224000
b0101 (
b0001111101100 ,
b0001111101100 +
0&
0!
b0101 #
#225000
b0001111101000 ,
1!
1&
b0001111101000 +
#226000
b0011 "
b0001111100010 +
0&
0!
b0001111100010 ,
b0011 '
#227000
b0001111100110 +
b0001111100110 ,
1!
1&
#228000
b0001111101010 +
0&
0!
b0001111101010 ,
#229000
b0110 "
b0001111100110 ,
1!
1&
b0001111100110 +
b0110 '
#230000
b0100 (
b0001111101101 +
0&
0!
b0001111101101 ,
b0100 #
#231000
b0001 )
b0001111101011 ,
1!
1&
b0001111101011 +
b0001 $
#232000
b0010 "
b0001111101001 +
0&
0!
b0001111101001 ,
b0010 '
#233000
b0001111100111 +
b0001111100111 ,
1!
1&
#234000
b0010 )
0&
0!
b0001111101010 ,
b0001111101010 +
b0010 $
#235000
1&
b0001111101000 +
b0001111101000 ,
1!
#236000
b0111 (
0!
b0001111100100 ,
b0001111100100 +
0&
b0111 #
#237000
b0100 )
1&
b0001111100111 +
b0001111100111 ,
1!
b0100 $
#238000
b0000 "
0!
b0001111101000 ,
b0001111101000 +
0&
b0000 '
#239000
b0001 (
1&
b0001111100100 +
b0001111100100 ,
1!
b0001 #
#240000
b0111 )
0!
b0001111100101 ,
b0001111100101 +
0&
b0111 $
#241000
b0100 "
1&
b0001111101010 +
b0001111101010 ,
1!
b0100 '
#242000
0&
0!
b0001111100110 ,
b0001111100110 +
#243000
b0001 )
b0001111101011 +
b0001111101011 ,
1!
1&
b0001 $
#244000
b0000 "
0&
0!
b0001111100111 ,
b0001111100111 +
b0000 '
#245000
b0011 (
b0001111101000 +
b0001111101000 ,
1!
1&
b0011 #
#246000
b0101 )
0&
0!
b0001111100100 ,
b0001111100100 +
b0101 $
#247000
b0111 "
b0001111101100 +
b0001111101100 ,
1!
1&
b0111 '
#248000
b0010 (
0&
0!
b0001111100100 ,
b0001111100100 +
b0010 #
#249000
b0100 )
b0001111101100 +
b0001111101100 ,
1!
1&
b0100 $
#250000
b0010 "
0&
0!
b0001111101010 ,
b0001111101010 +
b0010 '
#251000
1&
b0001111101000 +
b0001111101000 ,
1!
#252000
b0110 )
0!
b0001111100110 ,
b0001111100110 +
0&
b0110 $
#253000
b0100 "
1&
b0001111101011 +
b0001111101011 ,
1!
b0100 '
#254000
b0000 (
0!
b0001111101001 ,
b0001111101001 +
0&
b0000 #
#255000
b0100 )
1&
b0001111100111 +
b0001111100111 ,
1!
b0100 $
#256000
b0000 "
0!
b0001111101000 ,
b0001111101000 +
0&
b0000 '
#257000
b0010 (
1&
b0001111100110 +
b0001111100110 ,
1!
b0010 #
#258000
b0111 )
0!
b0001111100111 ,
b0001111100111 +
0&
b0111 $
#259000
1!
1&
b0001111101000 +
b0001111101000 ,
#260000
b0100 (
b0001111100110 ,
b0001111100110 +
0&
0!
b0100 #
#261000
b0101 )
1!
1&
b0001111100111 +
b0001111100111 ,
b0101 $
#262000
b0011 "
b0001111101011 ,
b0001111101011 +
0&
0!
b0011 '
#263000
b0111 (
1!
1&
b0001111100011 +
b0001111100011 ,
b0111 #
#264000
b0100 )
b0001111100111 ,
b0001111100111 +
0&
0!
b0100 $
#265000
b0110 "
1!
1&
b0001111101110 +
b0001111101110 ,
b0110 '
#266000
b0101 (
b0001111101010 ,
b0001111101010 +
0&
0!
b0101 #
#267000
b0110 )
1!
1&
b0001111100110 +
b0001111100110 ,
b0110 $
#268000
b0000 "
b0001111100111 ,
b0001111100111 +
0&
0!
b0000 '
#269000
b0111 (
1!
1&
b0001111101000 +
b0001111101000 ,
b0111 #
#270000
b0000 )
b0001111100100 ,
b0001111100100 +
0&
0!
b0000 $
#271000
b0100 "
1!
1&
b0001111101001 +
b0001111101001 ,
b0100 '
#272000
b0110 (
b0001111100111 ,
b0001111100111 +
0&
0!
b0110 #
#273000
b0010 )
1!
1&
b0001111101100 +
b0001111101100 ,
b0010 $
#274000
b0010 "
b0001111101010 ,
b0001111101010 +
0&
0!
b0010 '
#275000
b0010 (
1!
1&
b0001111101000 +
b0001111101000 ,
b0010 #
#276000
b0101 )
b0001111100110 ,
b0001111100110 +
0&
0!
b0101 $
#277000
b0000 "
1!
1&
b0001111100111 +
b0001111100111 ,
b0000 '
#278000
0!
b0001111101000 ,
b0001111101000 +
0&
#279000
b0001 )
1&
b0001111100110 +
b0001111100110 ,
1!
b0001 $
#280000
b0111 "
0!
b0001111101110 ,
b0001111101110 +
0&
b0111 '
#281000
1!
1&
b0001111100110 +
b0001111100110 ,
#282000
b0000 )
b0001111101110 ,
b0001111101110 +
0&
0!
b0000 $
#283000
b0110 "
1!
1&
b0001111101100 +
b0001111101100 ,
b0110 '
#284000
b0011 (
b0001111101000 ,
b0001111101000 +
0&
0!
b0011 #
#285000
b0110 )
1!
1&
b0001111100100 +
b0001111100100 ,
b0110 $
#286000
b0101 "
b0001111101010 ,
b0001111101010 +
0&
0!
b0101 '
#287000
b0001111100100 ,
1!
1&
b0001111100100 +
#288000
b0101 )
b0001111101010 +
0&
0!
b0001111101010 ,
b0101 $
#289000
b0011 "
b0001111100010 ,
1!
1&
b0001111100010 +
b0011 '
#290000
b0100 (
b0001111100110 +
0&
0!
b0001111100110 ,
b0100 #
#291000
b0111 )
b0001111101010 ,
1!
1&
b0001111101010 +
b0111 $
#292000
b0001111100010 ,
b0001111100010 +
0&
0!
#293000
b0000 (
1!
1&
b0001111100110 +
b0001111100110 ,
b0000 #
#294000
b0110 )
b0001111101010 ,
b0001111101010 +
0&
0!
b0110 $
#295000
b0101 "
1!
1&
b0001111100100 +
b0001111100100 ,
b0101 '
#296000
b0101 (
b0001111101010 ,
b0001111101010 +
0&
0!
b0101 #
#297000
b0001 )
1!
1&
b0001111100010 +
b0001111100010 ,
b0001 $
#298000
b0001 "
b0001111100100 ,
b0001111100100 +
0&
0!
b0001 '
#299000
b0000 (
1!
1&
b0001111100110 +
b0001111100110 ,
b0000 #
#300000
b0011 )
b0001111101000 ,
b0001111101000 +
0&
0!
b0011 $
#301000
b0110 "
1!
1&
b0001111100110 +
b0001111100110 ,
b0110 '
#302000
b0011 (
b0001111101101 ,
b0001111101101 +
0&
0!
b0011 #
#303000
b0001 )
1!
1&
b0001111101001 +
b0001111101001 ,
b0001 $
#304000
0!
b0001111100101 ,
b0001111100101 +
0&
#305000
b0010 (
1&
b0001111101100 +
b0001111101100 ,
1!
b0010 #
#306000
b0011 )
0!
b0001111101010 ,
b0001111101010 +
0&
b0011 $
#307000
b0010 "
1&
b0001111101000 +
b0001111101000 ,
1!
b0010 '
#308000
0&
0!
b0001111100110 ,
b0001111100110 +
#309000
b0101 )
b0001111101001 +
b0001111101001 ,
1!
1&
b0101 $
#310000
b0100 "
0&
0!
b0001111100111 ,
b0001111100111 +
b0100 '
#311000
b0011 (
b0001111101100 +
b0001111101100 ,
1!
1&
b0011 #
#312000
b0000 )
0&
0!
b0001111101000 ,
b0001111101000 +
b0000 $
#313000
b0011 "
b0001111100010 +
b0001111100010 ,
1!
1&
b0011 '
#314000
b0000 (
0&
0!
b0001111100110 ,
b0001111100110 +
b0000 #
#315000
b0100 )
b0001111101010 +
b0001111101010 ,
1!
1&
b0100 $
#316000
b0000 "
0&
0!
b0001111101000 ,
b0001111101000 +
b0000 '
#317000
b0010 (
b0001111100110 +
b0001111100110 ,
1!
1&
b0010 #
#318000
b0111 )
0&
0!
b0001111100111 ,
b0001111100111 +
b0111 $
#319000
b0011 "
b0001111101011 +
b0001111101011 ,
1!
1&
b0011 '
#320000
b0101 (
0&
0!
b0001111100011 ,
b0001111100011 +
b0101 #
#321000
b0100 )
b0001111100111 +
b0001111100111 ,
1!
1&
b0100 $
#322000
b0101 "
0&
0!
b0001111101101 ,
b0001111101101 +
b0101 '
#323000
b0110 (
b0001111100111 +
b0001111100111 ,
1!
1&
b0110 #
#324000
b0001111101101 +
0&
0!
b0001111101101 ,
#325000
b0001111100111 +
b0001111100111 ,
1!
1&
#326000
b0101 (
0&
0!
b0001111101101 ,
b0001111101101 +
b0101 #
#327000
b0110 )
b0001111100111 +
b0001111100111 ,
1!
1&
b0110 $
#328000
b0111 "
0&
0!
b0001111101111 ,
b0001111101111 +
b0111 '
#329000
b0001 (
b0001111101001 +
b0001111101001 ,
1!
1&
b0001 #
#330000
b0111 )
0&
0!
b0001111100001 ,
b0001111100001 +
b0111 $
#331000
b0001 "
b0001111100011 +
b0001111100011 ,
1!
1&
b0001 '
#332000
b0000 (
0&
0!
b0001111100101 ,
b0001111100101 +
b0000 #
#333000
b0110 )
b0001111100111 +
b0001111100111 ,
1!
1&
b0110 $
#334000
b0110 "
0&
0!
b0001111101110 ,
b0001111101110 +
b0110 '
#335000
b0111 (
b0001111101010 +
b0001111101010 ,
1!
1&
b0111 #
#336000
b0010 )
0&
0!
b0001111100110 ,
b0001111100110 +
b0010 $
#337000
b0011 "
b0001111101010 +
b0001111101010 ,
1!
1&
b0011 '
#338000
b0110 (
0&
0!
b0001111100100 ,
b0001111100100 +
b0110 #
#339000
b0101 )
b0001111101000 +
b0001111101000 ,
1!
1&
b0101 $
#340000
b0111 "
0&
0!
b0001111100000 ,
b0001111100000 +
b0111 '
#341000
1&
b0001111101000 +
b0001111101000 ,
1!
#342000
0&
0!
b0001111100000 ,
b0001111100000 +
#343000
b0000 "
b0001111100001 +
b0001111100001 ,
1!
1&
b0000 '
#344000
b0010 (
0&
0!
b0001111100010 ,
b0001111100010 +
b0010 #
#345000
b0111 )
b0001111100011 +
b0001111100011 ,
1!
1&
b0111 $
#346000
b0100 "
0&
0!
b0001111101000 ,
b0001111101000 +
b0100 '
#347000
b0001 (
b0001111100100 +
b0001111100100 ,
1!
1&
b0001 #
#348000
b0001 )
0&
0!
b0001111101001 ,
b0001111101001 +
b0001 $
#349000
b0000 "
b0001111100101 +
b0001111100101 ,
1!
1&
b0000 '
#350000
b0010 (
0&
0!
b0001111100110 ,
b0001111100110 +
b0010 #
#351000
b0011 )
b0001111100111 +
b0001111100111 ,
1!
1&
b0011 $
#352000
b0101 "
0&
0!
b0001111101101 ,
b0001111101101 +
b0101 '
#353000
b0111 (
b0001111100101 +
b0001111100101 ,
1!
1&
b0111 #
#354000
b0100 )
0&
0!
b0001111101011 ,
b0001111101011 +
b0100 $
#355000
b0000 "
b0001111100111 +
b0001111100111 ,
1!
1&
b0000 '
#356000
b0001 (
0&
0!
b0001111101000 ,
b0001111101000 +
b0001 #
#357000
b0011 )
b0001111100100 +
b0001111100100 ,
1!
1&
b0011 $
#358000
b0001 "
0&
0!
b0001111100110 ,
b0001111100110 +
b0001 '
#359000
b0011 (
b0001111101000 +
b0001111101000 ,
1!
1&
b0011 #
#360000
b0101 )
0&
0!
b0001111100000 ,
b0001111100000 +
b0101 $
#361000
b0101 "
b0001111100110 +
b0001111100110 ,
1!
1&
b0101 '
#362000
b0101 (
0&
0!
b0001111101100 ,
b0001111101100 +
b0101 #
#363000
b0110 )
b0001111100110 +
b0001111100110 ,
1!
1&
b0110 $
#364000
b0100 "
0&
0!
b0001111101011 ,
b0001111101011 +
b0100 '
#365000
b0001 (
b0001111100111 +
b0001111100111 ,
1!
1&
b0001 #
#366000
b0001111101100 +
0&
0!
b0001111101100 ,
#367000
b0110 "
b0001111101000 ,
1!
1&
b0001111101000 +
b0110 '
#368000
b0000 (
b0001111100110 +
0&
0!
b0001111100110 ,
b0000 #
#369000
b0101 )
b0001111101101 ,
1!
1&
b0001111101101 +
b0101 $
#370000
b0001 "
b0001111100101 +
0&
0!
b0001111100101 ,
b0001 '
